N_importance = 16
N_iters = 40000
N_rand = 1024
N_samples = 320
basedir = ./logs
chunk = 4096
config = configs/breakfast_room.txt
crop = 0
datadir = ./data/breakfast_room
dataset_type = scannet
depth_weight = 0.0
expname = breakfast_room
factor = 1
far = 2.0
frame_features = 0
fs_weight = 10.0
ft_path = None
i_embed = 0
i_img = 5000
i_mesh = 200000
i_print = 100
i_weights = 2000
lrate = 0.0005
lrate_decay = 250
mode = sdf
multires = 8
multires_views = 4
near = 0.0
netchunk = 65536
netdepth = 8
netdepth_fine = 8
netwidth = 256
netwidth_fine = 256
no_reload = False
optimize_poses = True
perturb = 1.0
raw_noise_std = 0.0
render_factor = 1
rgb_loss_type = l2
rgb_weight = 0.1
sc_factor = 0.4
sdf_loss_type = l2
share_coarse_fine = True
trainskip = 1
translation = [0.0, -1.42, 0.0]
trunc = 0.05
trunc_weight = 6000.0
use_deformation_field = False
use_viewdirs = True
